 @
    @
      @
 @@@@@@@@@@@@@@@@@@@@@ ///////                                                                                  ///////
   @@@@@@@   @@@@@@@   ////       @@@@@@@@@@@@%     @@@@@.          @@@@@@  .@@@@@       @@@@@  @@@@@@@@@@@@@@@    ////
     @@@@@*  @@@@@     ////     &@@@@@@@&@@@@@@@    @@@@@.          @@@@@@   @@@@@@     @@@@@   @@@@@@@@@@@@@@@    ////
       @@@@@@@@@       ////     @@@@@      @@@@@@   @@@@@.          @@@@@@    @@@@@    %@@@@*   @@@@@@             ////
         @@@@@         ////    @@@@@@       @@@@@   @@@@@.          @@@@@@     @@@@@   @@@@@    @@@@@@@@@@@@@@     ////
          @@@          ////    @@@@@@       @@@@@   @@@@@.          @@@@@@     .@@@@% @@@@@     @@@@@@@@@@@@@@     ////
          @@@          ////     @@@@@      @@@@@@   @@@@@.          @@@@@@      @@@@@ @@@@      @@@@@@             ////
          @@@          ////     *@@@@@@@@@@@@@@@    @@@@@@@@@@@@@@  @@@@@@       @@@@@@@@/      @@@@@@@@@@@@@@@    ////
         @@@@@         ////       @@@@@@@@@@@@      @@@@@@@@@@@@@@  @@@@@@        @@@@@@@       @@@@@@@@@@@@@@@    ////
      @@@@@@@@@@@      ///////                                                                                  ///////

  00100010 01001001 01100110 00100000 01110100 01101000 01100101 01111001 00100000 01100100 01101111 01101110 00100111
  01110100 00100000 01110111 01100001 01101110 01110100 00100000 01111001 01101111 01110101 00100000 01110100 01101111
  00100000 01100111 01100101 01110100 00100000 01101001 01101110 01110011 01101001 01100100 01100101 00100000 01110100
  01101000 01100101 01101001 01110010 00100000 01110011 01111001 01110011 01110100 01100101 01101101 00101100 00100000
  01110100 01101000 01100101 01111001 00100000 01101111 01110101 01100111 01101000 01110100 00100000 01110100 01101111
  00100000 01100010 01110101 01101001 01101100 01100100 00100000 01101001 01110100 00100000 01100010 01100101 01110100
  01110100 01100101 01110010 00101110 00100010 00100000 00101101 00100000 01001000 01100001 01110010 01101111 01101100
  01100100 00100000 01000110 01101001 01101110 01100011 01101000

                 Welcome to olive! Created by: Olivier Bakker & Harm Brugge (and Tsjerk A. Wassenaar)

